70k.utf8
…
## cw_freq_rw
##  [-10,0)   [0,10)  [10,20)  [20,30)  [30,40)  [40,50)  [50,60)  [60,70) 
##        0    11667    14553     7373    12195     4315     6880     5260 
##  [70,80)  [80,90) [90,100) 
##     2212     5813       39

## [1] "fc_credit_score"

## # A tibble: 70,331 x 5
##    account_number customer_code branch average_salary confidence_percentage
##    <chr>          <chr>         <chr>  <chr>          <chr>                
##  1 106017500094   BB2139585     1      1779140        83.96                
##  2 110010003401   KP0100034     17     137.3          21.84                
##  3 110010018801   KP0100188     17     69083.33       84.64                
##  4 110010036001   KP0100360     17     500            21.84                
##  5 110010108501   KP0101085     17     42574.45       66.89                
##  6 110010109401   KP0101094     15     54016          84.64                
##  7 110010124901   KP0101249     17     44584.19       68.94                
##  8 110010125401   KP0101254     17     42481.37       64.16                
##  9 110010126101   KP0101261     17     3786.15        21.84                
## 10 110010127001   KP0101270     17     56096.5        83.96                
## # ... with 70,321 more rows
…
## [1] "Percentage of population who will get loan if loan is provided to those who have confidence_percentage=100"

## [1] 0.03412435

## # A tibble: 20,228 x 5
##    account_number customer_code branch average_salary confidence_percentage
##    <fct>          <fct>         <fct>           <dbl>                 <dbl>
##  1 106017500094   BB2139585     1            1779140                   84.0
##  2 110010018801   KP0100188     17             69083.                  84.6
##  3 110010108501   KP0101085     17             42574.                  66.9
##  4 110010109401   KP0101094     15             54016                   84.6
##  5 110010124901   KP0101249     17             44584.                  68.9
##  6 110010125401   KP0101254     17             42481.                  64.2
##  7 110010127001   KP0101270     17             56096.                  84.0
##  8 110010158301   KP0101583     19             52045.                  84.6
##  9 110010183701   KP0101837     17             37109.                  53.2
## 10 110010186801   KP0101868     17            292842.                  84.6
## # ... with 20,218 more rows
…
## [1] 1527144732

## [1] "Total dispersed loan if 80 percentage of average salary is provided as loan to those who have confidence_percentage>50"

## [1] 1308981198

## [1] "Total dispersed loan if 90 percentage of average salary is provided as loan to those who have confidence percentage>50"

## [1] 1963471798

## [1] "Total dispersed loan if 100 percentage of average salary is provided as loan to those who have confidence percentage>50"

## [1] 2181635331

## # A tibble: 13,348 x 5
##    account_number customer_code branch average_salary confidence_percentage
##    <fct>          <fct>         <fct>           <dbl>                 <dbl>
##  1 106017500094   BB2139585     1            1779140                   84.0
##  2 110010018801   KP0100188     17             69083.                  84.6
##  3 110010108501   KP0101085     17             42574.                  66.9
##  4 110010109401   KP0101094     15             54016                   84.6
##  5 110010124901   KP0101249     17             44584.                  68.9
##  6 110010125401   KP0101254     17             42481.                  64.2
##  7 110010127001   KP0101270     17             56096.                  84.0
##  8 110010158301   KP0101583     19             52045.                  84.6
##  9 110010186801   KP0101868     17            292842.                  84.6
## 10 110010227301   KP0102273     17             71952.                  79.9
## # ... with 13,338 more rows
…
## [1] 1355591647

## [1] "Total dispersed loan if 80 percentage of average salary is provided as loan to those who have confidence_percentage>60"

## [1] 1161935698

## [1] "Total dispersed loan if 90 percentage of average salary is provided as loan to those who have confidence percentage>60"

## [1] 1742903547

## [1] "Total dispersed loan if 100 percentage of average salary is provided as loan to those who have confidence percentage>60"

## [1] 1936559496

## # A tibble: 8,088 x 5
##    account_number customer_code branch average_salary confidence_percentage
##    <fct>          <fct>         <fct>           <dbl>                 <dbl>
##  1 106017500094   BB2139585     1            1779140                   84.0
##  2 110010018801   KP0100188     17             69083.                  84.6
##  3 110010109401   KP0101094     15             54016                   84.6
##  4 110010127001   KP0101270     17             56096.                  84.0
##  5 110010158301   KP0101583     19             52045.                  84.6
##  6 110010186801   KP0101868     17            292842.                  84.6
##  7 110010227301   KP0102273     17             71952.                  79.9
##  8 110010254201   KP0102542     1              76816.                  84.0
##  9 110010266701   KP0102667     17             82038.                  84.6
## 10 110010279801   KP0102798     17             68548.                  81.9
## # ... with 8,078 more rows
…
## [1] 1128585441

## [1] "Total dispersed loan if 80 percentage of average salary is provided as loan to those who have confidence_percentage>70"

## [1] 967358950

## [1] "Total dispersed loan if 90 percentage of average salary is provided as loan to those who have confidence percentage>70"

## [1] 1451038425

## [1] "Total dispersed loan if 100 percentage of average salary is provided as loan to those who have confidence percentage>70"

## [1] 1612264916

## # A tibble: 5,876 x 5
##    account_number customer_code branch average_salary confidence_percentage
##    <fct>          <fct>         <fct>           <dbl>                 <dbl>
##  1 106017500094   BB2139585     1            1779140                   84.0
##  2 110010018801   KP0100188     17             69083.                  84.6
##  3 110010109401   KP0101094     15             54016                   84.6
##  4 110010127001   KP0101270     17             56096.                  84.0
##  5 110010158301   KP0101583     19             52045.                  84.6
##  6 110010186801   KP0101868     17            292842.                  84.6
##  7 110010254201   KP0102542     1              76816.                  84.0
##  8 110010266701   KP0102667     17             82038.                  84.6
##  9 110010279801   KP0102798     17             68548.                  81.9
## 10 110010282001   KP0102820     1              53276.                  84.0
## # ... with 5,866 more rows
…
## [1] 960379896

## [1] "Total dispersed loan if 80 percentage of average salary is provided as loan to those who have confidence_percentage>80"

## [1] 823182768

## [1] "Total dispersed loan if 90 percentage of average salary is provided as loan to those who have confidence percentage>80"

## [1] 1234774152

## [1] "Total dispersed loan if 100 percentage of average salary is provided as loan to those who have confidence percentage>80"

## [1] 1371971280

## # A tibble: 63 x 5
##    account_number customer_code branch average_salary confidence_percentage
##    <fct>          <fct>         <fct>           <dbl>                 <dbl>
##  1 710010290001   BN0702900     7              50101.                  97.3
##  2 1210017500408  PK2006188     12             53214.                  95.2
##  3 1210017501526  PK2023269     23             55875.                  94.2
##  4 1210017506343  PK2186004     12             54871.                 100  
##  5 1210017510129  PK2298772     12            138211.                 100  
##  6 1210017512620  PK2364956     12            207184.                  99.3
##  7 1510017507653  MG2488997     15             70328.                  92.2
##  8 1510017507655  MG2489013     15             55680.                  92.2
##  9 1710017500356  KP2241956     17             54668.                 100  
## 10 1710017500754  KP2248759     17             54863.                 100  
## # ... with 53 more rows
…
## [1] 4070168

## [1] "Total dispersed loan if 80 percentage of average salary is provided as loan to those who have confidence_percentage>90"

## [1] 3488715

## [1] "Total dispersed loan if 90 percentage of average salary is provided as loan to those who have confidence percentage>90"

## [1] 5233073

## [1] "Total dispersed loan if 100 percentage of average salary is provided as loan to those who have confidence percentage>90"

## [1] 5814525

## # A tibble: 63 x 5
##    account_number customer_code branch average_salary confidence_percentage
##    <fct>          <fct>         <fct>           <dbl>                 <dbl>
##  1 710010290001   BN0702900     7              50101.                  97.3
##  2 1210017500408  PK2006188     12             53214.                  95.2
##  3 1210017501526  PK2023269     23             55875.                  94.2
##  4 1210017506343  PK2186004     12             54871.                 100  
##  5 1210017510129  PK2298772     12            138211.                 100  
##  6 1210017512620  PK2364956     12            207184.                  99.3
##  7 1510017507653  MG2488997     15             70328.                  92.2
##  8 1510017507655  MG2489013     15             55680.                  92.2
##  9 1710017500356  KP2241956     17             54668.                 100  
## 10 1710017500754  KP2248759     17             54863.                 100  
## # ... with 53 more rows
…
## [1] 4070168

## [1] "Total dispersed loan if 80 percentage of average salary is provided as loan to those who have confidence_percentage>90"

## [1] 3488715

## [1] "Total dispersed loan if 90 percentage of average salary is provided as loan to those who have confidence percentage>90"

## [1] 5233073

## [1] "Total dispersed loan if 100 percentage of average salary is provided as loan to those who have confidence percentage>90"

## [1] 5814525

## # A tibble: 24 x 5
##    account_number customer_code branch average_salary confidence_percentage
##    <fct>          <fct>         <fct>           <dbl>                 <dbl>
##  1 1210017506343  PK2186004     12             54871.                   100
##  2 1210017510129  PK2298772     12            138211.                   100
##  3 1710017500356  KP2241956     17             54668.                   100
##  4 1710017500754  KP2248759     17             54863.                   100
##  5 1810017500400  TP2251827     18            109505.                   100
##  6 1810017501236  TP2323667     18             60604                    100
##  7 1910017501395  LT2266708     19             53806.                   100
##  8 2010017501058  RM2077590     20            204588.                   100
##  9 2310017502477  HE2077252     23             53648.                   100
## 10 2310017502506  HE2077349     23             92221.                   100
## # ... with 14 more rows
…
