fc_70k_lt_40k.utf8
…
## cw_freq_rw
##  [-10,0)   [0,10)  [10,20)  [20,30)  [30,40)  [40,50)  [50,60)  [60,70) 
##        0     3931    10094     4958    11172     5044     7466     7684 
##  [70,80)  [80,90) [90,100) 
##     2457     2547       55

## [1] "fc_credit_score"

## # A tibble: 55,409 x 5
##    account_number customer_code branch average_salary confidence_percentage
##    <chr>          <chr>         <chr>  <chr>          <chr>                
##  1 110010003401   KP0100034     17     137.3          24.69                
##  2 110010036001   KP0100360     17     500            24.69                
##  3 110010126101   KP0101261     17     3786.15        24.69                
##  4 110010183701   KP0101837     17     37108.88       81.48                
##  5 110010244701   KP0102447     19     30340.87       62.96                
##  6 110010309301   KP0103093     17     32593.19       80.86                
##  7 110010309601   KP0103096     1      32197.64       81.48                
##  8 110010309801   KP0103098     1      23900.33       53.09                
##  9 110010313701   KP0103137     17     32268.23       81.48                
## 10 110010436101   KP0104361     1      24701.64       67.28                
## # ... with 55,399 more rows
…
## [1] "Percentage of population who will get loan if loan is provided to those who have confidence_percentage=100"

## [1] 0.001804761

## # A tibble: 20,146 x 5
##    account_number customer_code branch average_salary confidence_percentage
##    <fct>          <fct>         <fct>           <dbl>                 <dbl>
##  1 110010183701   KP0101837     17             37109.                  81.5
##  2 110010244701   KP0102447     19             30341.                  63.0
##  3 110010309301   KP0103093     17             32593.                  80.9
##  4 110010309601   KP0103096     1              32198.                  81.5
##  5 110010309801   KP0103098     1              23900.                  53.1
##  6 110010313701   KP0103137     17             32268.                  81.5
##  7 110010436101   KP0104361     1              24702.                  67.3
##  8 110010449201   KP0104492     17             39208.                  81.5
##  9 110010499701   KP0104997     17             24033.                  66.7
## 10 110010513801   KP0105138     17             34524.                  72.8
## # ... with 20,136 more rows
…
## [1] 415297580

## [1] "Total dispersed loan if 80 percentage of average salary is provided as loan to those who have confidence_percentage>50"

## [1] 355969354

## [1] "Total dispersed loan if 90 percentage of average salary is provided as loan to those who have confidence percentage>50"

## [1] 533954031

## [1] "Total dispersed loan if 100 percentage of average salary is provided as loan to those who have confidence percentage>50"

## [1] 593282257

## # A tibble: 12,744 x 5
##    account_number customer_code branch average_salary confidence_percentage
##    <fct>          <fct>         <fct>           <dbl>                 <dbl>
##  1 110010183701   KP0101837     17             37109.                  81.5
##  2 110010244701   KP0102447     19             30341.                  63.0
##  3 110010309301   KP0103093     17             32593.                  80.9
##  4 110010309601   KP0103096     1              32198.                  81.5
##  5 110010313701   KP0103137     17             32268.                  81.5
##  6 110010436101   KP0104361     1              24702.                  67.3
##  7 110010449201   KP0104492     17             39208.                  81.5
##  8 110010499701   KP0104997     17             24033.                  66.7
##  9 110010513801   KP0105138     17             34524.                  72.8
## 10 110010614701   KP0106147     17             34005.                  79.6
## # ... with 12,734 more rows
…
## [1] 288211889

## [1] "Total dispersed loan if 80 percentage of average salary is provided as loan to those who have confidence_percentage>60"

## [1] 247038762

## [1] "Total dispersed loan if 90 percentage of average salary is provided as loan to those who have confidence percentage>60"

## [1] 370558142

## [1] "Total dispersed loan if 100 percentage of average salary is provided as loan to those who have confidence percentage>60"

## [1] 411731269

## # A tibble: 5,060 x 5
##    account_number customer_code branch average_salary confidence_percentage
##    <fct>          <fct>         <fct>           <dbl>                 <dbl>
##  1 110010183701   KP0101837     17             37109.                  81.5
##  2 110010309301   KP0103093     17             32593.                  80.9
##  3 110010309601   KP0103096     1              32198.                  81.5
##  4 110010313701   KP0103137     17             32268.                  81.5
##  5 110010449201   KP0104492     17             39208.                  81.5
##  6 110010513801   KP0105138     17             34524.                  72.8
##  7 110010614701   KP0106147     17             34005.                  79.6
##  8 110010731801   KP0107318     17             38276.                  81.5
##  9 110010835301   KP0108353     15             39262                   81.5
## 10 110010857001   KP0108570     17             36138.                  71.0
## # ... with 5,050 more rows
…
## [1] 125283842

## [1] "Total dispersed loan if 80 percentage of average salary is provided as loan to those who have confidence_percentage>70"

## [1] 107386150

## [1] "Total dispersed loan if 90 percentage of average salary is provided as loan to those who have confidence percentage>70"

## [1] 161079225

## [1] "Total dispersed loan if 100 percentage of average salary is provided as loan to those who have confidence percentage>70"

## [1] 178976917

## # A tibble: 2,603 x 5
##    account_number customer_code branch average_salary confidence_percentage
##    <fct>          <fct>         <fct>           <dbl>                 <dbl>
##  1 110010183701   KP0101837     17             37109.                  81.5
##  2 110010309301   KP0103093     17             32593.                  80.9
##  3 110010309601   KP0103096     1              32198.                  81.5
##  4 110010313701   KP0103137     17             32268.                  81.5
##  5 110010449201   KP0104492     17             39208.                  81.5
##  6 110010731801   KP0107318     17             38276.                  81.5
##  7 110010835301   KP0108353     15             39262                   81.5
##  8 110010942801   KP0109428     17             33172.                  81.5
##  9 110010974001   KP0109740     1              37229.                  81.5
## 10 110013055201   KP0130552     17             37101.                  81.5
## # ... with 2,593 more rows
…
## [1] 64961439

## [1] "Total dispersed loan if 80 percentage of average salary is provided as loan to those who have confidence_percentage>80"

## [1] 55681233

## [1] "Total dispersed loan if 90 percentage of average salary is provided as loan to those who have confidence percentage>80"

## [1] 83521850

## [1] "Total dispersed loan if 100 percentage of average salary is provided as loan to those who have confidence percentage>80"

## [1] 92802055

## # A tibble: 56 x 5
##    account_number customer_code branch average_salary confidence_percentage
##    <fct>          <fct>         <fct>           <dbl>                 <dbl>
##  1 210017268801   PK2003801     17             34288.                 100  
##  2 410017507336   JP2419445     4              32938.                  95.4
##  3 410017507400   JP2420956     4              33335.                  92.9
##  4 410017507433   JP2421476     4              37061.                  92.9
##  5 410017507826   JP2434646     4              34885.                  93.5
##  6 410017508812   JP2468787     4              38463.                  95.4
##  7 410017508814   JP2468800     4              33188.                  94.1
##  8 410017508816   JP2468802     4              37585.                  95.4
##  9 410017508818   JP2468805     4              36831.                  95.4
## 10 410017508831   JP2469203     4              34799.                  94.1
## # ... with 46 more rows
…
## [1] 1410904

## [1] "Total dispersed loan if 80 percentage of average salary is provided as loan to those who have confidence_percentage>90"

## [1] 1209346

## [1] "Total dispersed loan if 90 percentage of average salary is provided as loan to those who have confidence percentage>90"

## [1] 1814019

## [1] "Total dispersed loan if 100 percentage of average salary is provided as loan to those who have confidence percentage>90"

## [1] 2015577

## # A tibble: 56 x 5
##    account_number customer_code branch average_salary confidence_percentage
##    <fct>          <fct>         <fct>           <dbl>                 <dbl>
##  1 210017268801   PK2003801     17             34288.                 100  
##  2 410017507336   JP2419445     4              32938.                  95.4
##  3 410017507400   JP2420956     4              33335.                  92.9
##  4 410017507433   JP2421476     4              37061.                  92.9
##  5 410017507826   JP2434646     4              34885.                  93.5
##  6 410017508812   JP2468787     4              38463.                  95.4
##  7 410017508814   JP2468800     4              33188.                  94.1
##  8 410017508816   JP2468802     4              37585.                  95.4
##  9 410017508818   JP2468805     4              36831.                  95.4
## 10 410017508831   JP2469203     4              34799.                  94.1
## # ... with 46 more rows
…
